215,2954      218,7939      218,7939      218,7939      217,7407      218,6081      208,4702       211,846      197,3078      202,4606      212,4654      216,0177      212,0589      212,1976      213,9149      218,7939      218,7939      213,1932      215,0551      207,1794      218,7939      218,7939      218,7939      218,7939      208,1986      198,7814      218,7939      187,7302      218,7939      218,7939      215,7698       203,344      211,5571      206,6266      188,7492      218,7939       212,579      218,7939      218,7939      210,2722
29698,4848      29698,4848      29698,4848      29698,4848      29698,4848      29698,4848      29698,4848      29698,4848      29698,4848      29698,4848      29698,4848      29698,4848      29698,4848      29698,4848      29698,4848      29698,4848      29698,4848      29698,4848      29698,4848      29698,4848      29698,4848      29698,4848      29698,4848      29698,4848      29698,4848      29698,4848      29698,4848      29698,4848      29698,4848      29698,4848      29698,4848      29698,4848      29698,4848      29698,4848      29698,4848      29698,4848      29698,4848      29698,4848      29698,4848      29698,4848
5267,5364      5267,5364      5267,5364      5267,5364      5267,5364      5267,5364      5267,5364      5250,1881      5267,5364      5264,8148      5267,5364      5267,5364      5267,5364      5267,5364      5254,3813      5267,5364      5267,5364       5258,046       5252,631      5267,5364      5244,9393      5267,5364      5267,5364      5267,5364      5258,4853      5258,8067      5262,0555      5267,5364      5267,5364      5267,5364      5267,5364      5263,0238       5236,427      5267,5364       5257,677      5267,5364      5267,5364      5267,5364      5267,5364       5261,097
29661,9453      29666,5127      29661,9453      29671,0801      29657,3778      29661,9453      29671,0801      29671,0801      29666,5127      29666,5127      29666,5127      29661,9453      29666,5127      29666,5127      29666,5127      29661,9453      29666,5127      29666,5127      29666,5127      29657,3778      29666,5127      29666,5127      29671,0801      29671,0801      29671,0801      29657,3778      29671,0801      29666,5127      29671,0801      29666,5127      29657,3778      29661,9453      29661,9453      29657,3778      29661,9453      29671,0801      29666,5127      29671,0801      29671,0801      29666,5127
29584,2987      29584,2987      29584,2987      29575,1638      29588,8662      29584,2987      29579,7313      29588,8662      29584,2987      29579,7313      29584,2987      29584,2987      29575,1638      29579,7313      29584,2987      29584,2987      29584,2987      29575,1638      29570,5964      29584,2987      29584,2987      29575,1638      29579,7313      29575,1638      29588,8662      29570,5964      29584,2987      29570,5964      29579,7313      29579,7313      29570,5964      29584,2987      29579,7313      29575,1638      29575,1638      29584,2987      29575,1638      29575,1638      29575,1638      29579,7313
29598,001      29588,8662      29588,8662       29598,001      29588,8662       29598,001      29584,2987      29584,2987      29593,4336      29593,4336      29588,8662      29593,4336       29598,001       29598,001      29593,4336      29584,2987      29588,8662       29598,001      29588,8662       29598,001       29598,001      29584,2987      29588,8662      29584,2987      29588,8662       29598,001      29588,8662      29584,2987      29593,4336      29602,5685      29602,5685       29598,001      29584,2987      29588,8662      29584,2987      29584,2987      29588,8662       29598,001       29598,001      29584,2987
9345,9273      9345,9273      9345,9273      9345,9273      9345,9273      9345,9273      9345,8341      9345,9273      9345,9273      9345,9273      9345,9273      9345,9273      9345,9273      9345,9273      9345,9273      9345,9273      9345,9273      9345,9273      9345,9273      9345,9273      9345,9273      9345,9273      9334,4715      9345,9273      9345,9273      9345,9273      9345,9273      9345,9273      9345,9273      9345,9273      9345,9273      9345,9273       9339,915      9336,9962      9345,9273      9345,9273      9344,7841      9345,9273      9345,9273      9345,9273
2594,4717      2594,4717      2587,0396      2594,4717      2594,4717      2594,4717      2590,1158      2594,4717      2594,4717      2594,4717      2594,4717      2594,4717      2591,9974      2594,4717      2594,4717      2594,4717      2594,4717      2594,4717      2594,4717      2594,4717      2594,4717      2594,4717      2594,4717      2594,4717      2592,2594      2594,4717      2594,4717      2591,0298       2593,117      2594,4717      2594,4717      2594,4717      2594,4717      2593,6745      2594,4717      2581,5562      2594,4717      2589,4211      2594,4717      2594,4717
29625,4057      29616,2708      29616,2708      29629,9732      29620,8383      29625,4057      29616,2708      29616,2708      29625,4057      29625,4057      29620,8383      29616,2708      29616,2708      29620,8383      29625,4057      29625,4057      29616,2708      29620,8383      29625,4057      29620,8383      29629,9732      29629,9732      29625,4057      29616,2708      29616,2708      29625,4057      29611,7034      29629,9732      29625,4057      29620,8383      29616,2708      29616,2708      29620,8383      29620,8383      29625,4057      29629,9732      29629,9732      29620,8383      29620,8383      29629,9732
29625,4057      29625,4057      29616,2708      29620,8383      29616,2708      29616,2708      29618,6594      29627,7943      29623,2269      29629,9732      29611,7034      29618,6594      29616,2708      29620,8383      29634,5406      29616,2708      29600,3897       29614,092       29614,092      29609,5246      29602,5685      29616,2708      29602,5685      29629,9732      29625,4057      29620,8383      29609,5246      29618,6594      29634,5406      29616,2708      29620,8383      29629,9732      29607,1359      29620,8383      29609,5246      29602,5685      29616,2708      29634,5406      29625,4057      29602,5685
19245,4222       19225,441        19244,82      19245,4222      19245,4222      19245,4222      19245,4222      19245,4222      19245,4222      19241,5869      19245,4222      19245,4222      19245,4222      19244,7331      19245,4222      19245,4222      19245,4222      19245,4222      19245,4222      19245,4222      19245,4222      19245,4222      19239,7563      19245,4222      19245,4222        19243,43      19245,4222      19245,4222      19245,4222      19230,2135      19245,4222      19245,4222      19245,4222      19241,9106      19229,9416      19245,4222      19245,4222      19245,4222      19245,4222      19245,4222
6851,2545      6851,2545      6851,2545      6845,0902      6851,2545      6851,2545      6851,2545      6849,4421      6848,2626      6851,2545      6851,2545      6851,2545      6840,4672      6834,4148      6851,2545      6851,2545      6851,2545      6844,5896      6844,1018      6837,4805      6851,2545      6851,2545      6851,2545      6851,2545      6851,2545      6851,2545      6851,2545      6851,2545      6851,2545      6851,2545       6844,062      6844,2045      6851,2545      6851,2545      6851,2545      6851,2545      6851,2545      6851,2545      6851,2545      6838,2648
8454,9727      8454,9727      8454,9727      8454,9727      8454,9727      8454,9727      8451,6336      8454,9727      8454,9727      8454,9727      8454,9727      8454,9727      8453,2811      8454,9727      8454,9727      8452,7604      8450,4787      8454,9727      8454,9727      8454,9727      8447,9805      8454,9727      8451,2134      8454,9727      8437,0162      8454,9727       8453,618      8454,9727      8454,9727      8449,1993      8439,3558      8436,8295      8454,9727      8445,0401      8454,9727      8454,9727      8448,7324      8454,9727      8454,9727      8454,9727
29634,5406      29634,5406      29625,4057      29634,5406      29634,5406      29634,5406      29625,4057      29625,4057      29634,5406       29639,108       29639,108      29625,4057      29634,5406       29639,108      29620,8383      29634,5406      29634,5406      29629,9732      29625,4057      29625,4057      29634,5406      29634,5406      29629,9732      29634,5406      29634,5406      29629,9732      29625,4057      29634,5406      29629,9732      29634,5406      29620,8383      29629,9732      29634,5406      29625,4057       29639,108      29629,9732      29634,5406      29634,5406      29634,5406       29639,108
10692,2586      10692,2586      10692,2586      10681,8313      10692,2586      10692,2586      10692,2586      10692,2586      10692,2586      10692,2586      10690,9037      10692,2586      10692,2586      10692,2586      10692,2586      10692,2586      10692,2586      10692,2586      10692,2586      10692,2586      10692,2586      10692,2586      10692,2586      10683,3071      10692,2586      10692,2586      10692,2586      10692,2586      10692,2586      10692,2586      10681,2135      10691,6888      10692,2586      10692,2586      10692,2586      10692,2586      10692,2586      10692,2586      10692,2586      10692,2586
29531,878       29531,878      29515,7871      29518,1757      29529,4894      29536,4455      29522,7431      29534,0568      29509,0408      29515,7871       29524,922       29531,878      29513,6082      29515,7871      29513,6082      29520,3545      29513,6082      29518,1757      29534,0568      29527,3106      29513,6082       29524,922      29513,6082      29511,2196      29527,3106       29524,922      29520,3545      29518,1757      29529,4894      29527,3106      29534,0568      29529,4894      29518,1757       29524,922      29518,1757       29531,878      29522,7431      29534,0568      29529,4894      29529,4894
29497,5173      29479,2475       29483,815      29492,9498      29467,9338      29486,2036      29481,6361      29474,8899      29488,3824      29477,0687       29483,815      29479,2475      29479,2475      29492,9498      29492,9498      29467,9338      29477,0687      29488,3824       29483,815      29474,6801      29492,9498      29472,5012      29492,9498      29481,6361       29483,815      29474,6801       29483,815      29467,9338      29477,0687       29483,815      29492,9498      29492,9498      29463,3664       29483,815      29488,3824      29479,2475      29488,3824      29488,3824      29481,6361      29481,6361
4626,1217      4633,9687      4603,3283      4633,9687      4633,9687      4633,9687       4628,789      4630,1594      4632,3923      4631,0418      4633,9687      4632,5866      4633,9687      4627,7021      4633,9687      4633,9687      4633,9687      4633,9687      4633,9687      4624,7713      4628,9849      4600,5453      4633,9687      4633,9687      4633,9687      4633,9687      4633,9687      4615,2902      4633,9687      4633,9687      4632,2832      4633,9687       4625,369      4633,9687      4633,9687      4633,9687      4630,9106      4633,2578      4630,9106      4633,9687
29698,4848      29698,4848      29698,4848      29698,4848      29698,4848      29698,4848      29698,4848      29698,4848      29698,4848      29698,4848      29698,4848      29698,4848      29698,4848      29698,4848      29698,4848      29698,4848      29698,4848      29698,4848      29698,4848      29698,4848      29698,4848      29698,4848      29698,4848      29698,4848      29698,4848      29698,4848      29698,4848      29698,4848      29698,4848      29698,4848      29698,4848      29698,4848      29698,4848      29698,4848      29698,4848      29698,4848      29698,4848      29698,4848      29698,4848      29698,4848
493,6735      515,7788      508,1857      515,7788      515,7788      505,3787      515,7788      515,7788      510,9919      515,7788      515,7788      515,7788      515,7788      515,7788      515,7788      515,7788      515,7788       493,407      515,7788      514,8252      515,7788      515,7788      512,0439      512,0439      515,4212      515,1412      513,0943      504,3248      503,2445      515,7788      501,9073      515,7788      510,7022      506,5808      492,0125      506,8733      488,5621      515,7788      515,7788      515,7788
5595,0518      5591,1816      5593,1843      5603,9182      5603,9182      5599,1936      5603,9182      5603,9182      5603,9182      5603,9182      5597,4934      5602,7751      5591,9283      5603,9182      5603,9182      5603,9182      5603,9182      5603,9182      5599,9263      5593,9984      5603,9182      5603,9182      5587,4327      5590,4093      5596,4172      5603,9182      5601,5424      5599,9497      5599,6698      5603,9182      5594,1336      5603,9182      5598,1652      5603,9182      5603,9182      5589,6971      5599,5827      5603,9182      5603,9182      5595,9684
29593,4336      29593,4336      29584,2987      29579,7313      29588,8662       29598,001      29579,7313      29588,8662      29593,4336      29593,4336       29598,001      29588,8662      29593,4336      29588,8662      29593,4336      29588,8662       29598,001      29584,2987      29584,2987      29584,2987      29588,8662      29588,8662      29588,8662      29588,8662      29588,8662      29588,8662       29598,001      29593,4336      29579,7313      29588,8662       29598,001      29593,4336       29598,001      29584,2987      29588,8662      29593,4336      29584,2987      29593,4336      29588,8662      29584,2987
29529,4894      29534,0568      29529,4894       29524,922       29524,922      29543,1917      29538,6243      29538,6243      29529,4894      29534,0568      29534,0568      29534,0568      29538,6243       29524,922      29534,0568       29524,922      29529,4894      29538,6243      29534,0568      29543,1917      29529,4894      29543,1917      29543,1917      29538,6243      29538,6243      29543,1917      29529,4894       29524,922      29543,1917      29534,0568      29529,4894      29538,6243      29543,1917      29543,1917       29524,922      29529,4894      29543,1917      29534,0568      29538,6243      29538,6243
16453,7646      16441,2342      16453,7646      16453,7646      16451,7036      16453,7646      16442,2163       16445,165      16453,7646      16453,7646      16446,8485      16453,7646      16453,7646      16453,7646      16453,7646      16453,7646      16453,7646      16453,7646      16453,7646      16453,7646      16448,1991      16453,7646      16453,7646      16453,7646      16442,3887      16453,7646      16453,7646      16453,7646      16452,0137      16453,7646      16453,7646      16439,6304      16453,7646      16453,7646      16453,7646      16453,7646      16453,7646      16453,7646      16450,9002      16453,7646
29602,5685      29593,4336      29602,5685      29602,5685      29611,7034      29607,1359      29620,8383      29616,2708      29616,2708      29616,2708      29602,5685      29607,1359      29607,1359      29588,8662      29611,7034      29602,5685      29607,1359      29611,7034      29607,1359      29607,1359      29593,4336      29602,5685      29607,1359       29598,001      29588,8662      29607,1359      29611,7034      29593,4336      29616,2708      29593,4336      29616,2708      29611,7034      29593,4336      29607,1359      29593,4336      29607,1359      29611,7034       29598,001      29607,1359      29616,2708
29602,5685      29607,1359      29611,7034      29611,7034      29593,4336      29607,1359      29620,8383      29611,7034      29616,2708      29620,8383      29620,8383       29598,001      29625,4057      29616,2708      29607,1359      29616,2708      29607,1359      29607,1359      29607,1359      29602,5685      29616,2708      29616,2708      29602,5685      29620,8383      29611,7034      29611,7034       29598,001      29611,7034      29620,8383      29616,2708      29602,5685      29611,7034      29616,2708      29611,7034      29616,2708      29625,4057      29611,7034      29602,5685      29611,7034      29607,1359
29634,5406      29643,6755      29643,6755       29639,108      29629,9732      29643,6755      29643,6755      29643,6755      29643,6755       29639,108      29648,2429      29648,2429      29643,6755      29629,9732       29639,108      29648,2429       29639,108      29648,2429      29648,2429      29652,8104      29643,6755      29629,9732      29634,5406      29643,6755      29648,2429      29643,6755      29657,3778      29648,2429      29634,5406      29634,5406      29652,8104      29643,6755      29634,5406      29629,9732      29634,5406      29652,8104      29648,2429      29634,5406      29620,8383      29625,4057
25165,3202      25165,3202      25165,3202      25154,2622      25164,4825      25149,8884      25165,3202      25165,3202      25165,3202      25163,4359      25165,3202      25165,3202      25165,3202      25165,3202      25165,3202      25165,3202      25165,3202      25160,5083      25165,3202      25163,5716      25160,5604      25165,3202      25158,3403      25165,3202      25165,3202      25165,3202      25165,3202      25150,1784      25165,3202      25165,3202      25152,1746      25165,3202      25165,3202      25165,3202      25165,3202      25165,3202      25165,0337      25165,3202      25165,3202      25160,9474
99,799       99,799       99,799       99,799       99,799       99,799       99,799       99,799      85,2632       99,799       99,799       99,799       99,799       99,799       99,799       99,799       99,799       99,799       99,799       98,203       99,799       99,799       99,799       99,799       99,799       99,799       99,799       99,799       99,799       99,799       99,799       99,799       99,799      81,4354       99,799       99,799       99,799       99,799       99,799       99,799
5386,3303      5381,2537      5386,3303      5386,3303      5371,6735      5386,3303      5366,9657      5386,3303      5386,3303      5386,3303      5364,1707        5383,95      5386,3303      5386,3303      5374,9246      5381,8166      5386,3303      5386,3303      5357,4148      5386,3303      5386,3303      5386,3303      5386,3303      5386,3303      5383,2192      5386,3303      5381,8177       5382,677      5381,5413      5380,1769      5379,3074      5381,1506      5386,3303      5386,3303      5386,3303      5386,3303      5386,3303      5379,3868      5380,7088      5379,7649
