7720  7720  7720  7720  7720  7720  7720  7720  7720  7720
180  180  180  180  180  180  180  180  180  180
4800  4800  4800  4800  4800  4800  4800  4800  4800  4800
100  100  100  100  100  100  100  100  100  100
5120  5120  5120  5120  5120  5120  5120  5120  5120  5120
6660  6660  6660  6660  6660  6660  6660  6660  6660  6660
380  380  380  380  380  380  380  380  380  380
5920  5920  5920  5920  5920  5920  5920  5920  5920  5920
280  280  280  280  280  280  280  280  280  280
5160  5160  5160  5160  5160  5160  5160  5160  5160  5160
3000  3000  3000  3000  3000  3000  3000  3000  3000  3000
1520  1520  1520  1520  1520  1520  1520  1520  1520  1520
7640  7640  7640  7640  7640  7640  7640  7640  7640  7640
8320  8320  8320  8320  8320  8320  8320  8320  8320  8320
3840  3840  3840  3840  3840  3840  3840  3840  3840  3840
120  120  120  120  120  120  120  120  120  120
2240  2240  2240  2240  2240  2240  2240  2240  2240  2240
2720  2720  2720  2720  2720  2720  2720  2720  2720  2720
8060  8060  8060  8060  8060  8060  8060  8060  8060  8060
2180  2180  2180  2180  2180  2180  2180  2180  2180  2180
7840  7840  7840  7840  7840  7840  7840  7840  7840  7840
80  80  80  80  80  80  80  80  80  80
2440  2440  2440  2440  2440  2440  2440  2440  2440  2440
4560  4560  4560  4560  4560  4560  4560  4560  4560  4560
660  660  660  660  660  660  660  660  660  660
5540  5540  5540  5540  5540  5540  5540  5540  5540  5540
200  200  200  200  200  200  200  200  200  200
6560  6560  6560  6560  6560  6560  6560  6560  6560  6560
8560  8560  8560  8560  8560  8560  8560  8560  8560  8560
20  20  20  20  20  20  20  20  20  20
