tempo;iteracoes;quantosAchou;x;y
7,7404;14;7;389;74
12,285;26;10;408;388
16,7642;36;9;411;460
8,6365;18;9;333;271
9,9755;21;9;54;369
6,0065;12;9;156;113
10,3419;22;10;463;265
4,6623;9;10;284;418
27,4794;58;9;228;23
3,5852;7;10;298;370
7,2829;15;10;444;364
5,9303;12;10;451;263
19,4422;42;9;198;7
8,5826;18;8;356;212
12,4269;26;7;456;477
15,1571;32;8;369;51
2,6947;5;10;224;361
7,3165;15;7;78;223
16,7146;35;6;74;60
7,7079;16;6;322;103
8,5963;18;10;308;285
20,7409;44;6;177;475
9,4098;20;6;106;52
27,4712;59;8;160;78
10,528;21;10;465;380
25,7323;55;7;454;46
19,5969;42;9;8;9
5,5671;12;9;326;409
10,6018;22;8;223;330
9,2657;19;8;33;232
