tempo;iteracoes;quantosAchou;x;y
35,0811;1286;10;197;134
16,0653;609;10;720;34
17,5281;579;10;434;719
41,4232;1501;0;92;197
42,47;1501;0;175;84
40,1717;1501;0;404;37
42,1755;1501;0;674;448
42,1493;1501;0;550;726
29,668;976;10;247;93
44,3021;1501;0;540;239
8,5781;291;10;22;78
43,5117;1501;0;738;218
23,5043;728;10;348;632
43,5849;1501;0;667;490
46,1263;1501;0;182;567
22,6369;788;10;162;435
43,8808;1501;0;92;295
1,3141;42;10;279;208
10,2833;320;10;99;702
44,4539;1501;0;521;670
42,5291;1501;0;10;93
2,4166;83;10;656;400
42,7043;1501;0;717;215
40,8691;1501;0;57;449
14,5019;470;10;530;115
2,0579;74;10;504;447
40,747;1501;0;32;67
26,1651;635;10;561;273
62,7709;1501;0;285;32
51,1139;1315;10;474;735
